id,first_name,last_name,email,gender,ip_address
1,Emilio,Baldcock,ebaldcock0@hubpages.com,Male,78.235.244.173
2,Amber,Douglas,adouglas1@google.it,Female,148.85.204.35
3,Nestor,Renn,nrenn2@ihg.com,Male,52.35.6.64
4,Nickey,Rous,nrous3@craigslist.org,Male,55.70.145.55
5,Trixie,Beadnell,tbeadnell4@desdev.cn,Female,186.19.162.220
6,Irena,Shambrook,ishambrook5@japanpost.jp,Female,92.202.27.84
7,Edward,Clear,eclear6@timesonline.co.uk,Male,179.185.153.138
8,Briano,Tansill,btansill7@photobucket.com,Male,191.45.77.132
9,Odell,Mixter,omixter8@i2i.jp,Male,54.93.96.13
10,Nessi,Boldock,nboldock9@fema.gov,Female,228.127.253.233
11,Mattie,Fosdick,mfosdicka@cnbc.com,Female,244.130.255.10
12,Tabby,Townes,ttownesb@theguardian.com,Female,8.30.55.184
13,Karissa,Cod,kcodc@vkontakte.ru,Female,100.45.245.115
14,Brooks,Murrish,bmurrishd@simplemachines.org,Female,101.109.156.148
15,Desiree,Voysey,dvoyseye@oakley.com,Female,178.133.39.72
16,Kati,Pillington,kpillingtonf@google.de,Female,195.86.214.171
17,Mignonne,Pifford,mpiffordg@1und1.de,Female,160.86.245.74
18,Elora,Aronowitz,earonowitzh@delicious.com,Female,196.152.132.181
19,Mamie,Vevers,mveversi@weibo.com,Female,103.147.81.73
20,Reinald,Forbes,rforbesj@cisco.com,Male,52.207.214.86
21,Cedric,Izakov,cizakovk@ow.ly,Male,207.89.223.39
22,Bucky,Dymick,bdymickl@nytimes.com,Male,60.113.135.195
23,Niccolo,Davydochkin,ndavydochkinm@altervista.org,Male,96.21.232.208
24,Avril,Vern,avernn@bbc.co.uk,Female,136.99.117.39
25,Everard,Ragsdall,eragsdallo@ning.com,Male,68.111.122.247
26,Celestina,Smorthwaite,csmorthwaitep@smugmug.com,Female,132.95.37.251
27,Eugen,Nalder,enalderq@umich.edu,Male,230.102.22.55
28,Flori,Schnieder,fschniederr@wsj.com,Female,34.45.40.117
29,Ewan,Garvagh,egarvaghs@desdev.cn,Male,178.36.85.248
30,Oswell,Stockman,ostockmant@fema.gov,Male,22.217.152.23
31,Lemar,Tomalin,ltomalinu@dailymotion.com,Male,59.240.111.139
32,Myranda,Jonczyk,mjonczykv@topsy.com,Female,108.222.45.83
33,Cornelle,Grimsdith,cgrimsdithw@cornell.edu,Female,42.246.181.111
34,Antonius,Derrington,aderringtonx@opera.com,Male,108.212.99.162
35,Wren,Corbin,wcorbiny@umn.edu,Female,171.148.131.45
36,Hoebart,Cristoforo,hcristoforoz@storify.com,Male,126.22.81.79
37,Reggis,Dwyer,rdwyer10@weather.com,Male,105.7.37.113
38,Donny,Kundt,dkundt11@tripod.com,Male,139.93.21.252
39,Vivyanne,Redgewell,vredgewell12@com.com,Female,47.14.102.129
40,Benedict,Rispen,brispen13@bizjournals.com,Male,196.235.148.29
41,Vail,Kayser,vkayser14@yellowbook.com,Male,100.205.32.124
42,Anne,Marielle,amarielle15@fema.gov,Female,107.83.107.61
43,Chet,Jehaes,cjehaes16@naver.com,Male,91.14.190.219
44,Barry,Shacklady,bshacklady17@printfriendly.com,Female,148.126.236.220
45,Ariela,Weber,aweber18@twitpic.com,Female,192.54.199.59
46,Shayla,Tomasutti,stomasutti19@list-manage.com,Female,204.41.145.4
47,Miles,Brook,mbrook1a@mozilla.com,Male,98.193.42.213
48,Kayley,Eyres,keyres1b@flavors.me,Female,137.35.191.64
49,Ara,Bythway,abythway1c@businesswire.com,Female,182.66.7.142
50,Addi,Sulland,asulland1d@kickstarter.com,Female,253.210.45.219
51,Linzy,Sworn,lsworn1e@prweb.com,Female,34.165.135.25
52,Traci,Schimank,tschimank1f@opera.com,Female,252.65.218.243
53,Edee,Roman,eroman1g@msn.com,Female,169.215.70.84
54,Galven,Masding,gmasding1h@youtu.be,Male,194.171.228.115
55,Edsel,Van Hesteren,evanhesteren1i@so-net.ne.jp,Male,135.37.110.92
56,Emmalee,MacSkeaghan,emacskeaghan1j@ycombinator.com,Female,42.208.218.102
57,Marina,Hungerford,mhungerford1k@statcounter.com,Female,184.204.225.228
58,Nilson,Langham,nlangham1l@shutterfly.com,Male,62.198.77.125
59,Murray,Jankovic,mjankovic1m@goodreads.com,Male,15.188.247.128
60,Delia,Luety,dluety1n@pinterest.com,Female,163.197.94.144
61,Marielle,Kidston,mkidston1o@hatena.ne.jp,Female,155.97.231.184
62,Pansie,Melling,pmelling1p@marketwatch.com,Female,163.42.157.144
63,Maryjane,Brumfield,mbrumfield1q@bing.com,Female,4.70.138.46
64,Fredek,Worling,fworling1r@buzzfeed.com,Male,15.71.158.118
65,Fonz,Lapthorne,flapthorne1s@unicef.org,Male,47.36.161.32
66,Dagny,Davydychev,ddavydychev1t@tinypic.com,Male,127.155.31.197
67,Millard,Priddle,mpriddle1u@chronoengine.com,Male,135.35.173.224
68,Nicolai,Allchorne,nallchorne1v@mapy.cz,Male,197.187.141.44
69,Aldis,Androlli,aandrolli1w@army.mil,Male,194.252.182.132
70,Jere,Stables,jstables1x@xinhuanet.com,Female,30.230.190.32
71,Ashlie,Strathe,astrathe1y@newsvine.com,Female,2.54.49.142
72,Geno,Villalta,gvillalta1z@redcross.org,Male,219.245.90.109
73,Eartha,Crumbie,ecrumbie20@cafepress.com,Female,232.44.99.154
74,Hogan,Bickerdike,hbickerdike21@tinyurl.com,Male,23.115.93.239
75,Latisha,Wragge,lwragge22@omniture.com,Female,95.203.151.69
76,Orion,Browell,obrowell23@dedecms.com,Male,238.78.229.150
77,Van,Saker,vsaker24@nhs.uk,Female,47.254.174.160
78,Frazier,Gueste,fgueste25@ucoz.ru,Male,10.40.169.205
79,Rosie,Matuszynski,rmatuszynski26@angelfire.com,Female,97.89.139.172
80,Isabelita,Martell,imartell27@unc.edu,Female,67.48.62.114
81,Cordie,Nelsen,cnelsen28@amazon.com,Female,153.138.244.201
82,Ky,Jex,kjex29@scientificamerican.com,Male,23.42.246.33
83,Natty,Pollington,npollington2a@ameblo.jp,Female,60.8.63.106
84,Nara,Gorthy,ngorthy2b@nih.gov,Female,116.156.174.70
85,Marris,Wingham,mwingham2c@irs.gov,Female,9.53.117.31
86,Mannie,Kingdon,mkingdon2d@wisc.edu,Male,149.123.177.143
87,Sybila,Jiruca,sjiruca2e@over-blog.com,Female,85.118.154.71
88,Kendal,Pfeffel,kpfeffel2f@privacy.gov.au,Male,237.117.239.171
89,Les,McCosh,lmccosh2g@nytimes.com,Male,72.253.208.207
90,Kippar,Rubinsohn,krubinsohn2h@desdev.cn,Male,61.141.12.29
91,Khalil,MacLese,kmaclese2i@github.com,Male,162.135.49.86
92,Titus,Birkbeck,tbirkbeck2j@forbes.com,Male,31.246.78.115
93,Griswold,Kerrigan,gkerrigan2k@webmd.com,Male,104.45.217.254
94,Stan,Breache,sbreache2l@facebook.com,Male,44.139.236.195
95,Abra,McAnalley,amcanalley2m@github.io,Female,7.77.134.103
96,Rosco,Beswell,rbeswell2n@gnu.org,Male,235.232.193.98
97,Lannie,Alexsandrowicz,lalexsandrowicz2o@ihg.com,Male,122.77.242.125
98,Adler,Kave,akave2p@ft.com,Male,73.153.148.182
99,Flss,Woolaghan,fwoolaghan2q@bbc.co.uk,Female,200.169.158.177
100,Maddie,Kurth,mkurth2r@friendfeed.com,Male,89.10.42.214
101,Aubrey,Du Fray,adufray2s@bigcartel.com,Male,233.18.98.164
102,Bertha,Borman,bborman2t@theglobeandmail.com,Female,124.244.72.137
103,Cahra,Dewes,cdewes2u@lulu.com,Female,216.183.31.69
104,Roberta,Andres,randres2v@thetimes.co.uk,Female,203.43.125.47
105,Maximo,Crawshay,mcrawshay2w@instagram.com,Male,222.22.67.184
106,Roley,Gianolo,rgianolo2x@dot.gov,Male,65.40.237.184
107,Cobb,Neasham,cneasham2y@unicef.org,Male,254.194.43.201
108,Wendye,Heathwood,wheathwood2z@smh.com.au,Female,92.198.55.20
109,Aleen,Sey,asey30@naver.com,Female,215.35.101.173
110,Edsel,Bonhan,ebonhan31@mail.ru,Male,73.196.130.3
111,Rolf,Redrup,rredrup32@123-reg.co.uk,Male,113.69.36.65
112,Silvana,Phair,sphair33@geocities.jp,Female,77.185.95.62
113,Elnar,Francesco,efrancesco34@sakura.ne.jp,Male,95.151.145.193
114,Ty,Tuxwell,ttuxwell35@dyndns.org,Male,132.85.233.148
115,Trix,Hayer,thayer36@merriam-webster.com,Female,196.207.234.25
116,Paolina,Stuchberry,pstuchberry37@scribd.com,Female,153.160.101.135
117,Dorie,Fontenot,dfontenot38@google.co.jp,Male,147.56.231.159
118,Pat,Dore,pdore39@cargocollective.com,Female,203.158.53.192
119,Constantino,Donnel,cdonnel3a@ow.ly,Male,39.113.20.108
120,Levi,Spragg,lspragg3b@webnode.com,Male,26.10.95.253
121,Ruthi,Duffan,rduffan3c@bing.com,Female,132.133.86.84
122,Evie,Romaint,eromaint3d@globo.com,Female,74.184.204.221
123,Jeth,Crangle,jcrangle3e@cdbaby.com,Male,208.166.42.126
124,Celesta,MacShane,cmacshane3f@eepurl.com,Female,175.145.80.107
125,Kaine,Casella,kcasella3g@wikia.com,Male,29.227.212.63
126,Stanly,Mullane,smullane3h@cnn.com,Male,226.167.140.210
127,Aksel,Wynes,awynes3i@soundcloud.com,Male,52.156.228.5
128,Alvina,Pudsey,apudsey3j@naver.com,Female,111.219.33.107
129,Codi,Camlin,ccamlin3k@domainmarket.com,Male,43.132.6.191
130,Guido,Betham,gbetham3l@army.mil,Male,252.231.176.27
131,Helaine,Schiersch,hschiersch3m@multiply.com,Female,220.143.240.54
132,Lauren,Marchelli,lmarchelli3n@sciencedirect.com,Female,245.39.57.250
133,Veda,Di Bernardo,vdibernardo3o@timesonline.co.uk,Female,45.166.147.240
134,Aubree,Hurl,ahurl3p@howstuffworks.com,Female,176.10.164.147
135,Filberto,Vanes,fvanes3q@altervista.org,Male,83.144.81.127
136,Harwilll,Luetkemeyer,hluetkemeyer3r@joomla.org,Male,7.53.25.11
137,Ali,Northam,anortham3s@dmoz.org,Female,251.191.229.65
138,Cathryn,Rosengarten,crosengarten3t@home.pl,Female,246.32.71.92
139,Dot,Bonfield,dbonfield3u@google.es,Female,102.49.201.132
140,Briggs,Cleef,bcleef3v@ocn.ne.jp,Male,33.98.250.22
141,Wernher,Scones,wscones3w@chronoengine.com,Male,25.243.227.116
142,Priscilla,Del Checolo,pdelchecolo3x@google.it,Female,228.154.197.121
143,Drucie,Todhunter,dtodhunter3y@wunderground.com,Female,193.85.145.171
144,Ted,Milstead,tmilstead3z@amazon.co.uk,Male,121.198.249.50
145,Gabi,Jann,gjann40@engadget.com,Male,0.77.214.143
146,Nowell,Lusk,nlusk41@gmpg.org,Male,129.228.77.179
147,Franciska,Jonas,fjonas42@typepad.com,Female,120.2.136.134
148,Elianore,Krause,ekrause43@spiegel.de,Female,196.47.123.150
149,Deborah,Zorro,dzorro44@about.me,Female,132.19.60.142
150,Gerry,Setterfield,gsetterfield45@umn.edu,Male,151.165.117.215
151,Arvy,Vasyutochkin,avasyutochkin46@senate.gov,Male,145.232.47.54
152,Ardra,Yosifov,ayosifov47@weibo.com,Female,25.229.151.116
153,Viole,Dagworthy,vdagworthy48@soundcloud.com,Female,29.137.7.106
154,Red,Crosse,rcrosse49@1und1.de,Male,236.9.140.31
155,Vanya,Linklet,vlinklet4a@163.com,Male,204.162.214.74
156,Brandais,Shearsby,bshearsby4b@disqus.com,Female,183.158.89.155
157,Vanya,Biffen,vbiffen4c@google.ru,Male,218.233.48.75
158,Janette,Epgrave,jepgrave4d@macromedia.com,Female,38.11.58.248
159,Warner,Gain,wgain4e@globo.com,Male,190.157.216.24
160,Cthrine,Dansken,cdansken4f@bigcartel.com,Female,255.231.164.60
161,Edmund,Oris,eoris4g@nasa.gov,Male,23.151.29.17
162,Effie,Ralton,eralton4h@woothemes.com,Female,9.84.69.16
163,Lindsay,Ancell,lancell4i@pagesperso-orange.fr,Male,71.227.72.121
164,Emile,Eatherton,eeatherton4j@blogs.com,Male,65.88.149.245
165,Linn,Pischel,lpischel4k@mail.ru,Female,208.19.173.99
166,Peter,Dakhno,pdakhno4l@cmu.edu,Male,243.214.11.42
167,Karena,Dearing,kdearing4m@tamu.edu,Female,212.248.59.201
168,Bartholomeo,MacKeig,bmackeig4n@elpais.com,Male,77.192.135.12
169,Gloriane,Fuzzens,gfuzzens4o@usgs.gov,Female,226.207.106.217
170,Gris,Puckinghorne,gpuckinghorne4p@stumbleupon.com,Male,217.243.137.198
171,Stevana,Frontczak,sfrontczak4q@google.co.uk,Female,7.40.134.75
172,Bret,Terris,bterris4r@adobe.com,Male,191.51.18.79
173,Rosmunda,Butte,rbutte4s@soup.io,Female,59.251.112.112
174,Nessy,Kryska,nkryska4t@google.it,Female,28.127.254.162
175,Catharine,Durman,cdurman4u@google.ca,Female,52.69.149.196
176,Dun,Rizziello,drizziello4v@issuu.com,Male,197.146.98.16
177,Murry,Wilmot,mwilmot4w@unc.edu,Male,63.73.131.251
178,Erroll,McMeyler,emcmeyler4x@t.co,Male,252.198.254.146
179,Deeyn,Wozencroft,dwozencroft4y@boston.com,Female,210.91.54.248
180,Ernestus,Aimeric,eaimeric4z@plala.or.jp,Male,247.180.137.18
181,Blair,Kuhlmey,bkuhlmey50@ftc.gov,Male,105.101.157.47
182,Terrence,Sanders,tsanders51@cargocollective.com,Male,223.46.1.163
183,Gates,Bedberry,gbedberry52@goo.ne.jp,Female,85.77.246.167
184,Nomi,Koschek,nkoschek53@addthis.com,Female,188.66.234.200
185,Corinna,Liddiard,cliddiard54@topsy.com,Female,34.159.6.10
186,Vivianna,Gorusso,vgorusso55@paginegialle.it,Female,33.71.60.71
187,Bren,Thorneloe,bthorneloe56@nydailynews.com,Female,70.167.213.13
188,Susann,Logesdale,slogesdale57@constantcontact.com,Female,201.132.218.59
189,Jeremiah,Bratt,jbratt58@elpais.com,Male,1.60.7.200
190,Broddy,Hazley,bhazley59@mapy.cz,Male,182.180.52.245
191,Merlina,Kleinberer,mkleinberer5a@usa.gov,Female,39.127.34.9
192,Ches,Bortolomei,cbortolomei5b@wisc.edu,Male,140.190.34.251
193,Jonathan,Groocock,jgroocock5c@merriam-webster.com,Male,121.153.139.219
194,Tam,Gudgin,tgudgin5d@lulu.com,Male,145.220.63.137
195,Adora,Rubinsztein,arubinsztein5e@jalbum.net,Female,32.129.91.83
196,Enrika,Fairlamb,efairlamb5f@umich.edu,Female,81.182.189.141
197,Zebadiah,Stimpson,zstimpson5g@4shared.com,Male,130.193.116.202
198,Alayne,Sargison,asargison5h@parallels.com,Female,101.69.159.4
199,Cullie,Exrol,cexrol5i@tinyurl.com,Male,179.69.93.145
200,Elia,Renny,erenny5j@yahoo.co.jp,Male,247.35.176.81
201,Maure,Breslin,mbreslin5k@wunderground.com,Female,47.105.58.80
202,Jenni,Tregunna,jtregunna5l@creativecommons.org,Female,248.73.5.232
203,Liam,Girth,lgirth5m@soup.io,Male,167.32.38.147
204,Willem,Soitoux,wsoitoux5n@blog.com,Male,139.57.130.92
205,Dian,Fulker,dfulker5o@accuweather.com,Female,165.235.2.3
206,Gretal,Alldis,galldis5p@addtoany.com,Female,124.242.2.101
207,Gram,Beddie,gbeddie5q@naver.com,Male,62.175.4.195
208,Marcello,Lankford,mlankford5r@booking.com,Male,169.217.138.253
209,Joy,Kingsman,jkingsman5s@pagesperso-orange.fr,Female,30.253.186.124
210,Wenonah,Zack,wzack5t@webnode.com,Female,226.48.151.172
211,Bethena,Creser,bcreser5u@nps.gov,Female,174.179.194.136
212,Averell,Jozwiak,ajozwiak5v@shutterfly.com,Male,16.143.108.79
213,Claudia,Chucks,cchucks5w@fastcompany.com,Female,94.218.16.135
214,Don,Dalwood,ddalwood5x@github.com,Male,6.126.108.186
215,Cindra,Brussels,cbrussels5y@imdb.com,Female,152.38.29.57
216,Jo,Damper,jdamper5z@hc360.com,Female,17.222.202.86
217,Malory,Carthy,mcarthy60@163.com,Female,154.99.9.139
218,Kipper,Shearston,kshearston61@adobe.com,Male,172.33.81.8
219,Obediah,Spindler,ospindler62@hhs.gov,Male,147.39.1.187
220,Vinnie,Mitcheson,vmitcheson63@istockphoto.com,Female,133.182.180.11
221,Caitlin,Ference,cference64@youtube.com,Female,116.229.21.99
222,Mela,Bignell,mbignell65@blogspot.com,Female,174.110.96.142
223,Way,Maskill,wmaskill66@google.ca,Male,75.142.170.100
224,Alys,Scanlin,ascanlin67@princeton.edu,Female,82.219.104.57
225,Yoshi,Strettle,ystrettle68@gravatar.com,Female,33.215.231.28
226,Ardine,Creedland,acreedland69@microsoft.com,Female,214.112.250.215
227,Brucie,Jarville,bjarville6a@dion.ne.jp,Male,125.231.183.216
228,Rachel,Risom,rrisom6b@arstechnica.com,Female,31.21.98.168
229,Doralyn,Varley,dvarley6c@1688.com,Female,166.125.93.119
230,Minerva,Lazonby,mlazonby6d@wordpress.org,Female,182.117.60.107
231,Heidie,Wreiford,hwreiford6e@dmoz.org,Female,207.247.233.114
232,Robinia,McKeaney,rmckeaney6f@upenn.edu,Female,34.224.112.103
233,Rora,Fauning,rfauning6g@opera.com,Female,161.108.198.229
234,Rubie,Ping,rping6h@privacy.gov.au,Female,24.210.75.136
235,Geoff,Kaszper,gkaszper6i@uiuc.edu,Male,144.87.213.124
236,Debor,Brosi,dbrosi6j@redcross.org,Female,72.140.140.109
237,Thurston,Dikels,tdikels6k@diigo.com,Male,67.252.32.228
238,Zebulon,Hindsberg,zhindsberg6l@webnode.com,Male,14.7.234.207
239,Emmalynn,Autry,eautry6m@instagram.com,Female,92.151.68.249
240,Eveline,Mingaye,emingaye6n@sbwire.com,Female,223.84.82.215
241,Farand,Dyott,fdyott6o@wiley.com,Female,221.52.95.52
242,Keelby,Doogan,kdoogan6p@google.com,Male,136.119.212.182
243,Lorita,Roskilly,lroskilly6q@smugmug.com,Female,229.20.17.100
244,Parnell,Rosenfrucht,prosenfrucht6r@china.com.cn,Male,192.115.165.202
245,Sancho,Primarolo,sprimarolo6s@fda.gov,Male,22.151.187.251
246,Burton,Rogeon,brogeon6t@a8.net,Male,53.154.140.41
247,Edith,Dietsche,edietsche6u@icio.us,Female,210.10.137.249
248,Cobbie,Baird,cbaird6v@baidu.com,Male,87.9.206.251
249,Glory,Kegan,gkegan6w@trellian.com,Female,82.58.235.189
250,Orelia,Skellern,oskellern6x@hao123.com,Female,202.157.251.244
251,Camellia,Charnock,ccharnock6y@businesswire.com,Female,124.127.64.185
252,Hilde,Porch,hporch6z@mayoclinic.com,Female,248.156.128.35
253,Krisha,Mitchelmore,kmitchelmore70@cafepress.com,Male,248.115.207.40
254,Mamie,Ricker,mricker71@fotki.com,Female,120.209.87.88
255,Salomon,Fishleigh,sfishleigh72@who.int,Male,62.193.21.236
256,Ellwood,Kennon,ekennon73@cam.ac.uk,Male,197.39.124.86
257,Merle,Sondon,msondon74@businessweek.com,Female,202.249.82.130
258,Rogers,Panner,rpanner75@ning.com,Male,83.211.92.48
259,Sammy,Youtead,syoutead76@wiley.com,Male,62.140.156.119
260,Giffer,Koppen,gkoppen77@soup.io,Male,228.93.151.8
261,Willi,Gilbody,wgilbody78@accuweather.com,Male,178.46.138.58
262,Dianne,Benian,dbenian79@miitbeian.gov.cn,Female,39.65.238.97
263,Joshuah,Cooper,jcooper7a@e-recht24.de,Male,68.198.40.154
264,Marge,Phillips,mphillips7b@delicious.com,Female,177.150.13.108
265,Eadie,Gallant,egallant7c@unblog.fr,Female,198.156.222.97
266,Llewellyn,Feaveer,lfeaveer7d@fema.gov,Male,56.81.142.3
267,Yetty,Picton,ypicton7e@prnewswire.com,Female,71.189.154.71
268,Raymond,Frushard,rfrushard7f@bbc.co.uk,Male,117.37.99.154
269,Lanita,Galliford,lgalliford7g@woothemes.com,Female,62.17.92.0
270,Rosetta,Selwyn,rselwyn7h@vinaora.com,Female,237.247.181.34
271,Vernon,Ferneley,vferneley7i@gov.uk,Male,9.168.17.1
272,Burch,Oylett,boylett7j@geocities.com,Male,60.154.33.156
273,Tedra,McGrirl,tmcgrirl7k@odnoklassniki.ru,Female,245.231.32.121
274,Hymie,Ciccarello,hciccarello7l@seattletimes.com,Male,245.39.63.119
275,Daren,Rollin,drollin7m@dailymotion.com,Male,171.133.52.53
276,Dolorita,Hodcroft,dhodcroft7n@altervista.org,Female,213.173.113.113
277,Godart,Durdy,gdurdy7o@ted.com,Male,177.250.155.121
278,Brendin,Jephcote,bjephcote7p@wordpress.com,Male,138.243.86.150
279,Lanny,Richin,lrichin7q@mac.com,Female,160.46.151.161
280,Garvin,Heinsh,gheinsh7r@spotify.com,Male,60.47.72.14
281,Lauri,Saph,lsaph7s@ehow.com,Female,143.173.214.191
282,Rob,Stook,rstook7t@twitpic.com,Male,108.84.1.26
283,Channa,Roch,croch7u@netvibes.com,Female,27.94.201.240
284,Perl,Townby,ptownby7v@mit.edu,Female,180.188.238.136
285,Brandyn,Maywood,bmaywood7w@yahoo.com,Male,209.23.145.33
286,Missie,Thunnercliff,mthunnercliff7x@gnu.org,Female,222.95.243.158
287,Charil,Joan,cjoan7y@dot.gov,Female,56.254.29.39
288,Gizela,Sykes,gsykes7z@ihg.com,Female,77.108.92.190
289,Kilian,Mayberry,kmayberry80@hp.com,Male,178.152.224.175
290,Susannah,Sloyan,ssloyan81@walmart.com,Female,154.145.66.169
291,Erica,Boundey,eboundey82@sfgate.com,Female,188.211.205.20
292,Erwin,Scuffham,escuffham83@themeforest.net,Male,80.120.88.69
293,Meyer,Fairbanks,mfairbanks84@de.vu,Male,131.191.10.58
294,Pia,Dalgarno,pdalgarno85@free.fr,Female,232.91.205.167
295,Hendrick,Dillinton,hdillinton86@digg.com,Male,96.159.49.103
296,Arlie,Blindt,ablindt87@plala.or.jp,Female,131.92.185.63
297,Montague,Bryer,mbryer88@sciencedirect.com,Male,176.210.214.77
298,Valle,Furzer,vfurzer89@netscape.com,Male,194.88.249.187
299,Hoyt,Cassin,hcassin8a@sciencedirect.com,Male,179.61.72.31
300,Russ,Domone,rdomone8b@technorati.com,Male,238.128.139.151
301,Lon,Ramos,lramos8c@ifeng.com,Male,97.153.154.115
302,Emma,Dove,edove8d@bizjournals.com,Female,237.130.160.93
303,Margi,Muggeridge,mmuggeridge8e@cbc.ca,Female,165.198.35.41
304,Darlleen,Apted,dapted8f@tumblr.com,Female,106.59.104.96
305,Brenden,Tourry,btourry8g@weebly.com,Male,73.96.78.201
306,Gino,Rust,grust8h@google.pl,Male,80.174.187.100
307,Phedra,Purvess,ppurvess8i@gmpg.org,Female,25.189.156.142
308,Adi,Earie,aearie8j@lulu.com,Female,138.210.43.29
309,Ky,MacColgan,kmaccolgan8k@de.vu,Male,166.88.130.195
310,Jinny,Luto,jluto8l@simplemachines.org,Female,79.14.206.168
311,Diane,Dilleway,ddilleway8m@sogou.com,Female,156.244.52.81
312,Evyn,Tookey,etookey8n@tinyurl.com,Male,20.165.92.228
313,Renelle,Ivanaev,rivanaev8o@addthis.com,Female,240.93.75.116
314,Derk,Sturridge,dsturridge8p@bbc.co.uk,Male,124.55.235.142
315,Margot,Brecon,mbrecon8q@ucoz.com,Female,121.214.125.190
316,Chevalier,Banting,cbanting8r@ow.ly,Male,113.128.192.162
317,Bronny,Cullinan,bcullinan8s@hugedomains.com,Male,102.115.171.114
318,Brear,Delve,bdelve8t@ifeng.com,Female,176.63.203.4
319,Rodge,Trazzi,rtrazzi8u@nih.gov,Male,88.79.17.4
320,Ranice,Huncote,rhuncote8v@wordpress.com,Female,73.141.224.30
321,Michele,Kamien,mkamien8w@multiply.com,Male,64.213.169.252
322,Randi,Baskerfield,rbaskerfield8x@sohu.com,Female,14.221.103.218
323,Kayne,Conibere,kconibere8y@slashdot.org,Male,241.98.0.25
324,Ave,Linturn,alinturn8z@netlog.com,Male,176.64.0.26
325,Reinald,Hannaby,rhannaby90@yelp.com,Male,49.134.87.91
326,Elnore,Cackett,ecackett91@shutterfly.com,Female,208.103.10.10
327,Nata,MacLoughlin,nmacloughlin92@odnoklassniki.ru,Female,242.225.219.47
328,Chariot,Zieme,czieme93@about.com,Male,250.232.103.34
329,Nina,Pinching,npinching94@hostgator.com,Female,255.182.234.17
330,Shannon,Grishkov,sgrishkov95@samsung.com,Male,186.224.196.177
331,Torey,Ber,tber96@harvard.edu,Female,211.200.247.59
332,Izaak,Rawsthorne,irawsthorne97@elegantthemes.com,Male,0.189.247.130
333,Godard,Clericoates,gclericoates98@narod.ru,Male,83.223.203.99
334,Angie,Lambol,alambol99@networksolutions.com,Male,57.106.13.155
335,Garvy,Witcherley,gwitcherley9a@cisco.com,Male,127.125.252.88
336,Salome,Wegner,swegner9b@ftc.gov,Female,36.30.67.150
337,Sherman,Baumadier,sbaumadier9c@wp.com,Male,198.213.11.137
338,Robinet,Thurner,rthurner9d@imdb.com,Male,128.127.72.112
339,Correy,Calladine,ccalladine9e@blinklist.com,Male,147.189.66.154
340,Ossie,Belchamber,obelchamber9f@eepurl.com,Male,160.116.13.70
341,Ki,Milius,kmilius9g@youtube.com,Female,169.148.132.237
342,Agnella,Scahill,ascahill9h@go.com,Female,228.231.248.93
343,Terry,Heintz,theintz9i@tuttocitta.it,Female,202.15.155.39
344,Malory,Harte,mharte9j@mlb.com,Female,168.98.215.84
345,Benedicto,Hewes,bhewes9k@cdbaby.com,Male,223.198.141.55
346,Rod,Horrod,rhorrod9l@toplist.cz,Male,239.113.44.51
347,Jessie,Selway,jselway9m@guardian.co.uk,Female,226.110.93.13
348,Angus,Thurston,athurston9n@github.io,Male,157.238.188.76
349,Rosco,Barabisch,rbarabisch9o@is.gd,Male,62.99.46.28
350,Janifer,Gounod,jgounod9p@furl.net,Female,7.193.255.189
351,Killian,Lethcoe,klethcoe9q@cbc.ca,Male,162.204.16.108
352,Othello,Alltimes,oalltimes9r@domainmarket.com,Male,220.254.246.55
353,Jeremias,Tooley,jtooley9s@ning.com,Male,224.137.103.21
354,Ange,Robelow,arobelow9t@go.com,Female,140.31.33.70
355,Starlene,McArt,smcart9u@spotify.com,Female,82.34.127.176
356,Willem,Gavahan,wgavahan9v@angelfire.com,Male,178.36.59.187
357,Cris,Werny,cwerny9w@ed.gov,Female,104.225.30.11
358,Kirsten,Clendening,kclendening9x@t.co,Female,242.119.222.79
359,Hailee,Coen,hcoen9y@vinaora.com,Female,172.47.232.159
360,Caleb,Grishin,cgrishin9z@networksolutions.com,Male,162.187.148.222
361,Arthur,Yashanov,ayashanova0@cnn.com,Male,136.156.162.44
362,Padget,Farnorth,pfarnortha1@nifty.com,Male,37.17.179.198
363,Yetta,Coey,ycoeya2@fema.gov,Female,130.152.68.156
364,Kristopher,Ballentime,kballentimea3@etsy.com,Male,16.73.27.85
365,Paulina,Bayley,pbayleya4@sogou.com,Female,173.181.84.68
366,Penny,Carnachen,pcarnachena5@discuz.net,Male,133.46.12.31
367,Brose,Rimell,brimella6@yale.edu,Male,70.20.210.32
368,Fairfax,Gulvin,fgulvina7@amazon.de,Male,203.78.91.4
369,Maudie,Callicott,mcallicotta8@army.mil,Female,118.122.72.49
370,Finley,McAne,fmcanea9@google.es,Male,116.50.190.187
371,Delcine,Gilbee,dgilbeeaa@scientificamerican.com,Female,67.144.165.78
372,Merell,Blazic,mblazicab@independent.co.uk,Male,163.109.199.128
373,Meagan,Milmo,mmilmoac@diigo.com,Female,46.149.78.164
374,Cyrillus,Bettison,cbettisonad@fc2.com,Male,11.56.104.191
375,Madlin,Scane,mscaneae@apache.org,Female,207.251.129.50
376,Dorothee,Duligal,dduligalaf@devhub.com,Female,72.3.137.48
377,Lou,Laxon,llaxonag@tamu.edu,Male,179.144.111.197
378,Pall,Ingray,pingrayah@booking.com,Male,187.22.218.74
379,Glendon,Woonton,gwoontonai@pen.io,Male,239.126.237.105
380,Ewell,Longstaff,elongstaffaj@ucla.edu,Male,236.108.231.217
381,Tasha,Geldard,tgeldardak@thetimes.co.uk,Female,241.112.82.190
382,Jon,O'Fihillie,jofihillieal@blogtalkradio.com,Male,160.31.4.58
383,Roderick,Hasty,rhastyam@disqus.com,Male,40.235.55.240
384,Alric,Yanne,ayannean@loc.gov,Male,49.70.92.19
385,Tracey,Killerby,tkillerbyao@accuweather.com,Male,138.26.213.196
386,Damiano,Cussons,dcussonsap@nih.gov,Male,172.82.206.204
387,Dewain,Saph,dsaphaq@bigcartel.com,Male,17.102.249.74
388,Trudie,Parlott,tparlottar@google.es,Female,169.1.30.112
389,Bailey,Kitchaside,bkitchasideas@webnode.com,Male,154.224.22.217
390,Arlina,Padkin,apadkinat@shinystat.com,Female,5.58.141.207
391,Bernie,Saunt,bsauntau@about.me,Female,68.114.83.33
392,Ambros,Bleckly,ablecklyav@360.cn,Male,112.172.0.4
393,Waldo,Densell,wdensellaw@diigo.com,Male,64.1.203.114
394,Kelcey,Gartshore,kgartshoreax@wikipedia.org,Female,95.110.7.241
395,Winnie,Gaddie,wgaddieay@feedburner.com,Female,198.161.148.42
396,Guthry,Lindwall,glindwallaz@pagesperso-orange.fr,Male,43.54.115.193
397,Meryl,Denerley,mdenerleyb0@fda.gov,Male,9.200.48.217
398,Domingo,Argue,dargueb1@sina.com.cn,Male,157.49.235.84
399,Eve,Dabs,edabsb2@theglobeandmail.com,Female,212.232.135.254
400,Dione,Dunridge,ddunridgeb3@ning.com,Female,223.138.32.55
401,Linette,Giffard,lgiffardb4@dion.ne.jp,Female,7.108.82.82
402,Chicky,Kamall,ckamallb5@163.com,Female,117.196.103.1
403,Kelsi,Hiscoke,khiscokeb6@oaic.gov.au,Female,60.255.119.153
404,Nathaniel,Calterone,ncalteroneb7@networkadvertising.org,Male,60.229.93.40
405,Casandra,Janda,cjandab8@zimbio.com,Female,193.161.5.10
406,Haven,Wrightam,hwrightamb9@salon.com,Male,69.219.53.105
407,Jeanne,Elcott,jelcottba@a8.net,Female,66.93.240.138
408,Hillier,Setterfield,hsetterfieldbb@scientificamerican.com,Male,164.140.87.196
409,Yorgos,Hentze,yhentzebc@webnode.com,Male,127.4.212.90
410,Winfield,O'Ruane,woruanebd@networkadvertising.org,Male,112.21.171.38
411,Diana,Ducket,dducketbe@yahoo.co.jp,Female,50.134.23.206
412,Nico,Dulieu,ndulieubf@fotki.com,Male,26.252.217.101
413,Kristos,Eliaz,keliazbg@ted.com,Male,71.113.38.239
414,Justino,Villar,jvillarbh@so-net.ne.jp,Male,156.62.229.88
415,Guss,Gorton,ggortonbi@mozilla.com,Male,189.49.123.66
416,Adena,Claige,aclaigebj@elegantthemes.com,Female,141.237.103.194
417,Cary,Treherne,ctrehernebk@nydailynews.com,Male,137.39.252.43
418,Virgilio,Mintram,vmintrambl@topsy.com,Male,9.68.153.33
419,Rhona,Speerman,rspeermanbm@psu.edu,Female,237.203.124.97
420,Wash,Whitwam,wwhitwambn@lycos.com,Male,48.1.198.183
421,Sydelle,Kittle,skittlebo@xinhuanet.com,Female,210.108.214.157
422,Leelah,Goley,lgoleybp@printfriendly.com,Female,12.244.37.206
423,Lesley,Applegarth,lapplegarthbq@mysql.com,Male,63.121.224.146
424,Agnese,Ziehm,aziehmbr@nhs.uk,Female,213.157.182.101
425,Pattie,Bester,pbesterbs@jalbum.net,Male,200.130.6.124
426,Tabor,Steere,tsteerebt@diigo.com,Male,6.192.180.107
427,Kelsi,McCrea,kmccreabu@typepad.com,Female,44.151.119.252
428,Trstram,Staynes,tstaynesbv@jalbum.net,Male,51.22.251.247
429,Kane,Fear,kfearbw@seesaa.net,Male,235.121.86.0
430,Ricoriki,Seth,rsethbx@diigo.com,Male,109.143.224.58
431,Karolina,Dufour,kdufourby@google.com.au,Female,129.174.252.155
432,Ermin,Keyworth,ekeyworthbz@seattletimes.com,Male,131.100.96.217
433,Karry,Muir,kmuirc0@usatoday.com,Female,136.53.211.249
434,Trever,Wittey,twitteyc1@telegraph.co.uk,Male,23.164.230.152
435,Marsha,Landsborough,mlandsboroughc2@washington.edu,Female,25.223.57.249
436,Maurise,Berrow,mberrowc3@vistaprint.com,Male,27.168.90.114
437,Riccardo,Ebenezer,rebenezerc4@parallels.com,Male,43.21.144.186
438,Andris,Bidewell,abidewellc5@fastcompany.com,Male,20.205.122.187
439,Andrew,Ridoutt,aridouttc6@newyorker.com,Male,245.222.29.217
440,Frederico,Hembry,fhembryc7@elegantthemes.com,Male,212.159.238.224
441,Guntar,Whale,gwhalec8@reference.com,Male,8.145.181.39
442,Bobine,Connaughton,bconnaughtonc9@diigo.com,Female,0.122.18.166
443,Aubert,Chalmers,achalmersca@mtv.com,Male,17.86.236.131
444,Maxine,Lempenny,mlempennycb@amazon.co.uk,Female,180.214.115.100
445,Shepperd,Whenman,swhenmancc@europa.eu,Male,192.135.73.186
446,Simeon,Klulicek,sklulicekcd@ask.com,Male,187.103.187.44
447,Brade,Wattinham,bwattinhamce@clickbank.net,Male,117.24.110.220
448,Linn,Costard,lcostardcf@oakley.com,Female,56.136.234.1
449,Domenic,Muat,dmuatcg@soup.io,Male,59.83.63.67
450,Bill,Gant,bgantch@unicef.org,Male,84.205.23.0
451,Yuri,Weldon,yweldonci@businesswire.com,Male,177.156.192.233
452,Northrup,Hattam,nhattamcj@telegraph.co.uk,Male,18.136.178.46
453,Belia,Banfill,bbanfillck@360.cn,Female,196.127.158.85
454,Carolina,Minto,cmintocl@elpais.com,Female,255.18.35.215
455,Casie,Keenleyside,ckeenleysidecm@ucoz.ru,Female,232.35.186.235
456,Hallie,Arsey,harseycn@cam.ac.uk,Female,24.151.31.99
457,Sargent,Krochmann,skrochmannco@google.com.br,Male,146.114.162.56
458,Dierdre,Cornall,dcornallcp@instagram.com,Female,212.74.232.119
459,Paulina,Baynon,pbaynoncq@php.net,Female,70.113.162.66
460,Faythe,Ide,fidecr@alibaba.com,Female,14.207.5.198
461,Maximo,Salisbury,msalisburycs@slate.com,Male,147.3.23.25
462,Jerrilyn,Fulstow,jfulstowct@washingtonpost.com,Female,69.139.131.86
463,Basile,Caukill,bcaukillcu@springer.com,Male,148.18.5.88
464,Pat,Hember,phembercv@moonfruit.com,Male,133.206.146.5
465,Heather,Allaway,hallawaycw@sogou.com,Female,23.89.143.131
466,Garik,Beharrell,gbeharrellcx@europa.eu,Male,221.171.93.220
467,Claudie,Braunthal,cbraunthalcy@theguardian.com,Female,244.175.11.136
468,Cleveland,Yokelman,cyokelmancz@ed.gov,Male,81.121.229.137
469,Alic,Fandrey,afandreyd0@topsy.com,Male,189.81.91.194
470,Mercy,Ogilvie,mogilvied1@deliciousdays.com,Female,146.45.235.226
471,Trula,Elgee,telgeed2@plala.or.jp,Female,127.112.141.185
472,Tamas,Chittim,tchittimd3@pagesperso-orange.fr,Male,164.68.113.17
473,Pancho,McLelland,pmclellandd4@alexa.com,Male,227.20.170.92
474,Parsifal,Mattielli,pmattiellid5@state.gov,Male,117.120.30.151
475,Ole,Glazebrook,oglazebrookd6@tinyurl.com,Male,50.151.222.107
476,Lorrie,Schapero,lschaperod7@imdb.com,Female,58.235.199.237
477,Natalee,Ondrus,nondrusd8@ucla.edu,Female,183.67.246.97
478,Prentiss,Leng,plengd9@google.com.au,Male,12.48.67.54
479,Flossie,Sillars,fsillarsda@merriam-webster.com,Female,183.223.95.143
480,Norby,Shatford,nshatforddb@hatena.ne.jp,Male,219.108.237.32
481,Josephina,Stelli,jstellidc@dell.com,Female,134.221.90.179
482,Sheryl,Pinkie,spinkiedd@storify.com,Female,244.62.32.62
483,Chane,Stonall,cstonallde@scientificamerican.com,Male,27.85.81.196
484,Joycelin,Vuitte,jvuittedf@usgs.gov,Female,208.93.199.186
485,Rozanne,Overal,roveraldg@technorati.com,Female,135.110.145.208
486,Herbie,Bulmer,hbulmerdh@squidoo.com,Male,55.26.20.81
487,Odo,Radenhurst,oradenhurstdi@imgur.com,Male,112.95.70.145
488,Linet,Diego,ldiegodj@pcworld.com,Female,141.243.14.7
489,Benoite,McGilvra,bmcgilvradk@unicef.org,Female,128.125.199.132
490,Chickie,Bannerman,cbannermandl@answers.com,Female,196.254.166.198
491,Craggy,Yelding,cyeldingdm@e-recht24.de,Male,167.151.23.45
492,Piotr,Bradburne,pbradburnedn@posterous.com,Male,148.140.233.216
493,Rolf,Sholl,rsholldo@yelp.com,Male,140.23.114.99
494,Joellyn,Gribbon,jgribbondp@digg.com,Female,191.123.100.24
495,Elmore,Labbez,elabbezdq@example.com,Male,9.133.244.40
496,Quinlan,Blaydon,qblaydondr@omniture.com,Male,21.242.82.114
497,Lanie,Mardall,lmardallds@tumblr.com,Female,119.181.205.56
498,Desiree,Burles,dburlesdt@microsoft.com,Female,215.59.30.155
499,Ruperto,Aldwick,raldwickdu@sciencedaily.com,Male,255.105.143.4
500,Gloria,Coombes,gcoombesdv@storify.com,Female,10.46.214.12
501,Julie,Lagadu,jlagadudw@bizjournals.com,Male,40.73.192.183
502,Reagen,Denison,rdenisondx@apple.com,Male,83.28.206.85
503,Nerte,Iohananof,niohananofdy@weibo.com,Female,73.224.46.104
504,Jacky,Sigsworth,jsigsworthdz@typepad.com,Male,88.173.161.112
505,Cesaro,Ply,cplye0@bloglines.com,Male,9.121.105.194
506,Dena,Prue,dpruee1@360.cn,Female,105.115.43.157
507,Calv,Ettridge,cettridgee2@xrea.com,Male,162.25.121.166
508,Kingsly,Clipston,kclipstone3@biglobe.ne.jp,Male,94.173.171.2
509,Yoshiko,Orsi,yorsie4@live.com,Female,130.42.141.139
510,Henrieta,Ovid,hovide5@indiatimes.com,Female,31.177.209.33
511,Werner,Damato,wdamatoe6@plala.or.jp,Male,177.73.47.48
512,Ambros,Regina,areginae7@bloglovin.com,Male,246.125.72.255
513,Philbert,Neville,pnevillee8@howstuffworks.com,Male,2.53.194.7
514,Hermann,Doumic,hdoumice9@t-online.de,Male,36.168.182.192
515,Donal,Jachimiak,djachimiakea@constantcontact.com,Male,134.157.148.1
516,Locke,Glasby,lglasbyeb@sina.com.cn,Male,26.27.166.177
517,Arlinda,Benfield,abenfieldec@canalblog.com,Female,247.106.112.85
518,Angus,Kelemen,akelemened@eventbrite.com,Male,59.95.129.119
519,Dulcie,Relfe,drelfeee@nih.gov,Female,92.8.148.123
520,Shellie,Davydzenko,sdavydzenkoef@bbc.co.uk,Female,96.166.179.177
521,Adolph,Cabrer,acabrereg@utexas.edu,Male,242.218.10.185
522,Patrizio,Prantl,pprantleh@theguardian.com,Male,50.89.74.230
523,Benjie,Annett,bannettei@marketwatch.com,Male,60.192.68.178
524,Trever,Huntingford,thuntingfordej@seattletimes.com,Male,71.46.93.23
525,Anastasie,Lenormand,alenormandek@facebook.com,Female,72.7.5.88
526,Wynnie,Brinded,wbrindedel@studiopress.com,Female,193.30.213.178
527,Babbie,Indge,bindgeem@nature.com,Female,120.203.92.75
528,Flin,Zarfai,fzarfaien@microsoft.com,Male,191.41.68.193
529,Tam,Chilley,tchilleyeo@illinois.edu,Male,13.32.231.168
530,Tiphany,Hinkley,thinkleyep@bing.com,Female,46.167.135.84
531,Gayla,Legen,glegeneq@sohu.com,Female,238.96.138.64
532,Kameko,Hargroves,khargroveser@tripod.com,Female,147.70.119.116
533,Ambrosi,Morville,amorvillees@businesswire.com,Male,20.164.143.43
534,Marabel,Cattrall,mcattrallet@pcworld.com,Female,29.214.180.99
535,Angelina,Muir,amuireu@nsw.gov.au,Female,195.151.204.96
536,Andie,Beautyman,abeautymanev@123-reg.co.uk,Male,22.69.252.163
537,Frederic,Lonergan,flonerganew@oakley.com,Male,179.125.181.208
538,Emery,Morten,emortenex@rambler.ru,Male,155.152.86.151
539,Alisha,Burrows,aburrowsey@nationalgeographic.com,Female,70.156.22.226
540,Rozina,Blaxley,rblaxleyez@wunderground.com,Female,216.162.30.103
541,Filide,Longfoot,flongfootf0@google.pl,Female,104.32.8.28
542,Christos,Frankema,cfrankemaf1@yolasite.com,Male,11.222.24.223
543,Codi,Birrell,cbirrellf2@de.vu,Male,45.108.152.86
544,Florri,Tuttle,ftuttlef3@nationalgeographic.com,Female,235.195.223.95
545,Kerianne,Oleszczak,koleszczakf4@pbs.org,Female,137.252.32.236
546,Tracey,Gras,tgrasf5@java.com,Female,89.105.125.83
547,Marguerite,Tettersell,mtettersellf6@guardian.co.uk,Female,81.3.162.76
548,Sophi,Ionn,sionnf7@feedburner.com,Female,55.165.150.227
549,Mel,Cuardall,mcuardallf8@shinystat.com,Male,187.66.108.191
550,Peg,Gecke,pgeckef9@gmpg.org,Female,234.182.148.143
551,Bev,Gerardot,bgerardotfa@opensource.org,Male,194.85.185.201
552,Yank,Ronchetti,yronchettifb@google.com,Male,98.186.67.139
553,Ted,Barenskie,tbarenskiefc@spotify.com,Male,100.109.233.222
554,Clareta,Beszant,cbeszantfd@myspace.com,Female,73.250.100.109
555,Whitby,Briskey,wbriskeyfe@samsung.com,Male,119.186.171.43
556,Greggory,MacDiarmond,gmacdiarmondff@fda.gov,Male,209.93.141.25
557,Keriann,Keirle,kkeirlefg@ftc.gov,Female,15.124.196.71
558,Latrina,Hardway,lhardwayfh@google.de,Female,221.54.52.164
559,Cammy,Weine,cweinefi@php.net,Male,94.249.18.123
560,Kennett,Delle,kdellefj@mtv.com,Male,97.250.163.183
561,Arnold,Wingfield,awingfieldfk@domainmarket.com,Male,202.30.231.28
562,Renata,Tossell,rtossellfl@google.nl,Female,213.50.142.237
563,Esdras,Dudmesh,edudmeshfm@yolasite.com,Male,100.141.220.228
564,Antons,Ahrend,aahrendfn@cam.ac.uk,Male,161.251.64.1
565,Alano,Baigent,abaigentfo@craigslist.org,Male,5.228.7.45
566,Doe,Boydon,dboydonfp@upenn.edu,Female,239.97.189.60
567,Merrel,Finicj,mfinicjfq@example.com,Male,63.64.68.136
568,Ebeneser,Pawley,epawleyfr@infoseek.co.jp,Male,210.53.185.164
569,Kippie,todor,ktodorfs@canalblog.com,Female,251.224.83.15
570,Kellie,Napleton,knapletonft@theglobeandmail.com,Female,233.3.67.159
571,Lindy,Smallridge,lsmallridgefu@seattletimes.com,Male,167.203.15.205
572,Pail,Acarson,pacarsonfv@army.mil,Male,27.125.79.175
573,Kaylee,Liggins,kligginsfw@vk.com,Female,88.231.113.16
574,Monti,Noseworthy,mnoseworthyfx@vinaora.com,Male,92.95.123.245
575,Mar,MacPherson,mmacphersonfy@feedburner.com,Male,12.94.133.80
576,Rori,Tether,rtetherfz@mac.com,Female,151.32.134.92
577,Abigael,Linnett,alinnettg0@tinyurl.com,Female,161.224.253.47
578,Mada,Gisburne,mgisburneg1@livejournal.com,Female,234.107.249.107
579,Gregorius,Sheryn,gsheryng2@homestead.com,Male,159.233.81.160
580,Axel,Connick,aconnickg3@jiathis.com,Male,156.228.186.78
581,Ange,Hounsom,ahounsomg4@uiuc.edu,Male,74.47.226.124
582,Crissy,Pedwell,cpedwellg5@issuu.com,Female,206.237.23.86
583,Ingelbert,Lorenz,ilorenzg6@blinklist.com,Male,134.111.54.123
584,Kit,Alyokhin,kalyokhing7@berkeley.edu,Male,2.13.212.45
585,Rasia,Shurrock,rshurrockg8@howstuffworks.com,Female,70.236.75.198
586,Nye,Marco,nmarcog9@cam.ac.uk,Male,221.50.106.211
587,Gertruda,Faulkener,gfaulkenerga@lulu.com,Female,203.205.16.240
588,Carroll,Girt,cgirtgb@1688.com,Female,103.107.217.164
589,Tracy,Morey,tmoreygc@so-net.ne.jp,Male,169.84.63.126
590,Essy,Teeney,eteeneygd@youtu.be,Female,32.147.49.70
591,Tammie,Brugh,tbrughge@gizmodo.com,Female,208.228.235.183
592,Ambros,Badwick,abadwickgf@fda.gov,Male,118.52.40.171
593,Edin,Doust,edoustgg@ovh.net,Female,253.252.85.243
594,Allegra,Haswall,ahaswallgh@instagram.com,Female,82.15.54.116
595,Pietra,MacCombe,pmaccombegi@upenn.edu,Female,75.155.23.160
596,Denys,Connerly,dconnerlygj@timesonline.co.uk,Male,199.196.201.93
597,Tim,Drewitt,tdrewittgk@clickbank.net,Female,223.55.245.112
598,Mile,Charsley,mcharsleygl@friendfeed.com,Male,238.149.252.149
599,Sofie,McGilmartin,smcgilmartingm@cnn.com,Female,93.5.247.219
600,Frederica,Hundey,fhundeygn@photobucket.com,Female,71.167.129.214
601,Lemmy,Mackney,lmackneygo@bbc.co.uk,Male,148.162.165.166
602,Dory,Leggat,dleggatgp@narod.ru,Male,57.191.236.170
603,Tobias,Urlich,turlichgq@blinklist.com,Male,14.17.52.209
604,Warden,Shapera,wshaperagr@trellian.com,Male,101.1.129.238
605,Yuma,Polamontayne,ypolamontaynegs@tinypic.com,Male,198.0.158.101
606,Thia,Spadoni,tspadonigt@php.net,Female,67.115.126.86
607,Gillian,Ivanchenkov,givanchenkovgu@taobao.com,Female,21.191.15.90
608,Tonya,Willarton,twillartongv@reuters.com,Female,52.191.212.59
609,Shanon,Skittrell,sskittrellgw@wired.com,Female,110.32.16.110
610,Alicea,Pittock,apittockgx@nsw.gov.au,Female,255.199.48.209
611,Giacobo,Scrammage,gscrammagegy@nsw.gov.au,Male,109.19.84.5
612,Melisse,Meeson,mmeesongz@delicious.com,Female,179.177.204.69
613,Mahmud,Bails,mbailsh0@examiner.com,Male,52.217.95.27
614,Hamlen,Eastes,heastesh1@meetup.com,Male,150.110.43.253
615,Vlad,Gynni,vgynnih2@paginegialle.it,Male,28.87.67.65
616,Gannie,Putman,gputmanh3@illinois.edu,Male,194.188.110.110
617,Ruby,Connechy,rconnechyh4@list-manage.com,Male,135.44.28.89
618,Ashley,Bartelet,abarteleth5@ucoz.com,Male,204.229.166.151
619,Marcellina,Luty,mlutyh6@gnu.org,Female,199.149.42.179
620,Dione,Caitlin,dcaitlinh7@hp.com,Female,207.236.238.14
621,Sarajane,Bascombe,sbascombeh8@reference.com,Female,206.204.164.225
622,Lawton,Luton,llutonh9@pbs.org,Male,81.117.126.71
623,Valry,Ozelton,vozeltonha@europa.eu,Female,57.53.215.44
624,Granthem,Tebbett,gtebbetthb@omniture.com,Male,191.127.58.67
625,Bevvy,Noden,bnodenhc@omniture.com,Female,251.146.50.248
626,Piggy,Elsdon,pelsdonhd@buzzfeed.com,Male,64.60.0.241
627,Ashien,Mithan,amithanhe@fastcompany.com,Female,187.116.148.49
628,Jaclin,Baistow,jbaistowhf@lulu.com,Female,96.75.18.173
629,Jan,Sigward,jsigwardhg@youku.com,Female,205.52.96.94
630,Reinald,Sapseed,rsapseedhh@independent.co.uk,Male,131.253.68.152
631,Kitty,Twidale,ktwidalehi@wsj.com,Female,248.250.247.79
632,Vitoria,Gotter,vgotterhj@github.io,Female,11.180.205.207
633,Brant,Melonby,bmelonbyhk@disqus.com,Male,174.44.38.144
634,Sofie,Sillwood,ssillwoodhl@nba.com,Female,18.228.222.248
635,Chevy,Lalonde,clalondehm@goodreads.com,Male,158.126.244.70
636,Esme,Carlan,ecarlanhn@vinaora.com,Male,188.88.11.21
637,Kakalina,Gresswood,kgresswoodho@odnoklassniki.ru,Female,11.253.133.111
638,Gwendolyn,Rosentholer,grosentholerhp@fc2.com,Female,222.117.165.242
639,Penny,Ashforth,pashforthhq@slate.com,Female,243.87.235.244
640,Ludvig,Clifforth,lclifforthhr@sbwire.com,Male,33.102.172.72
641,Gina,Kubczak,gkubczakhs@ftc.gov,Female,243.221.49.88
642,Tamma,Ambrogio,tambrogioht@4shared.com,Female,55.65.163.225
643,Teirtza,Dudny,tdudnyhu@t-online.de,Female,197.185.22.202
644,Juliann,Aisbett,jaisbetthv@networksolutions.com,Female,176.70.164.63
645,Dulcia,McGrotty,dmcgrottyhw@msn.com,Female,235.230.137.58
646,Adriaens,Mazillius,amazilliushx@scribd.com,Female,140.186.223.78
647,Beulah,Jerdein,bjerdeinhy@macromedia.com,Female,157.179.131.245
648,Kimberly,Brimblecomb,kbrimblecombhz@liveinternet.ru,Female,44.147.255.176
649,Carl,Moorman,cmoormani0@reference.com,Male,71.131.53.175
650,Aldin,Avery,aaveryi1@addtoany.com,Male,173.9.243.31
651,Ulick,Tant,utanti2@blogs.com,Male,188.163.103.178
652,Noelani,Bamborough,nbamboroughi3@instagram.com,Female,186.73.230.120
653,Nester,Kintzel,nkintzeli4@de.vu,Male,190.208.204.188
654,Eleonore,Misselbrook,emisselbrooki5@slate.com,Female,225.228.100.208
655,Farlie,Ricold,fricoldi6@furl.net,Male,255.12.7.26
656,Sharon,Threadkell,sthreadkelli7@google.cn,Female,204.233.39.172
657,Minnie,Missen,mmisseni8@businessweek.com,Female,255.65.131.75
658,Dun,Aris,darisi9@artisteer.com,Male,139.154.40.33
659,Frank,Garnsworthy,fgarnsworthyia@economist.com,Male,37.224.63.205
660,Cora,Scutter,cscutterib@virginia.edu,Female,224.124.154.187
661,Alford,Redan,aredanic@ameblo.jp,Male,127.158.144.124
662,Pierce,Naismith,pnaismithid@exblog.jp,Male,119.160.49.217
663,Adora,Vakhrushev,avakhrushevie@feedburner.com,Female,177.89.23.105
664,Tessy,Teasdale,tteasdaleif@stumbleupon.com,Female,224.79.35.235
665,Bentlee,Downing,bdowningig@prweb.com,Male,88.247.1.148
666,Nealy,Cleeves,ncleevesih@japanpost.jp,Male,175.203.89.216
667,Maisie,Sayward,msaywardii@marriott.com,Female,45.54.216.136
668,Corry,Perkinson,cperkinsonij@cornell.edu,Female,196.23.58.237
669,Chester,Flewan,cflewanik@cnn.com,Male,6.24.73.83
670,Roseanne,Ormond,rormondil@about.me,Female,211.222.185.124
671,Ase,Foston,afostonim@zdnet.com,Male,172.31.136.95
672,Ardith,Goodwins,agoodwinsin@buzzfeed.com,Female,42.177.29.4
673,Seline,Wilcott,swilcottio@tinypic.com,Female,7.91.126.72
674,Didi,Musgrove,dmusgroveip@usnews.com,Female,232.28.92.31
675,Merwyn,Richemont,mrichemontiq@sitemeter.com,Male,10.143.134.190
676,Godart,Derington,gderingtonir@ocn.ne.jp,Male,126.144.92.167
677,Conant,Sime,csimeis@google.com.hk,Male,71.199.185.249
678,Iorgo,Gypson,igypsonit@illinois.edu,Male,103.111.210.22
679,Caro,Egginson,cegginsoniu@google.co.uk,Female,247.181.51.6
680,Jud,Grimwade,jgrimwadeiv@furl.net,Male,101.145.74.154
681,Ernestus,Wadeling,ewadelingiw@latimes.com,Male,186.111.136.115
682,Chucho,Pilgram,cpilgramix@cnbc.com,Male,120.213.100.8
683,Alyssa,Allmen,aallmeniy@google.com.hk,Female,22.111.16.178
684,Constantino,Lightbourn,clightbourniz@1688.com,Male,230.204.180.104
685,Romain,Vallender,rvallenderj0@cloudflare.com,Male,209.82.148.36
686,Juliana,Carnilian,jcarnilianj1@ustream.tv,Female,83.90.243.147
687,Anna-diane,Doumenc,adoumencj2@joomla.org,Female,31.218.58.74
688,Davin,De Cruce,ddecrucej3@google.co.uk,Male,131.131.92.52
689,Wilmer,Raikes,wraikesj4@omniture.com,Male,49.94.67.57
690,Brinn,Meth,bmethj5@deviantart.com,Female,228.24.138.247
691,Kristos,Karus,kkarusj6@huffingtonpost.com,Male,7.34.129.11
692,Wanda,Van Arsdall,wvanarsdallj7@netvibes.com,Female,228.189.28.70
693,Gwendolen,Nardi,gnardij8@cloudflare.com,Female,228.7.96.87
694,Felicity,McTeague,fmcteaguej9@scientificamerican.com,Female,47.184.207.192
695,Nicolis,McMenemy,nmcmenemyja@vistaprint.com,Male,196.73.201.205
696,Karlens,Lempenny,klempennyjb@spiegel.de,Male,115.131.206.153
697,Olga,Cartan,ocartanjc@163.com,Female,225.216.207.255
698,Roddy,Caroll,rcarolljd@amazon.com,Male,77.36.245.182
699,Bab,Rowcastle,browcastleje@chronoengine.com,Female,176.181.151.61
700,Leonard,Brissenden,lbrissendenjf@livejournal.com,Male,110.127.115.14
701,Agnese,Latan,alatanjg@pagesperso-orange.fr,Female,69.171.37.25
702,Bryn,Renvoys,brenvoysjh@zimbio.com,Male,253.77.92.193
703,Cristine,Sevitt,csevittji@paypal.com,Female,205.54.92.105
704,Pamella,Orbon,porbonjj@about.com,Female,109.215.235.245
705,Cordell,Fritschel,cfritscheljk@histats.com,Male,204.212.169.147
706,Niall,Winspar,nwinsparjl@cam.ac.uk,Male,168.215.162.54
707,Karl,Daybell,kdaybelljm@springer.com,Male,90.46.42.179
708,Moishe,Headland,mheadlandjn@bloglovin.com,Male,200.109.190.151
709,Barty,Reardon,breardonjo@ihg.com,Male,40.125.35.100
710,Jehu,Jellings,jjellingsjp@marketwatch.com,Male,171.101.233.138
711,Arlen,Wharton,awhartonjq@last.fm,Female,250.106.108.22
712,Colleen,Haithwaite,chaithwaitejr@nbcnews.com,Female,30.229.146.18
713,Danika,Pepon,dpeponjs@usa.gov,Female,148.123.91.239
714,Irma,Steen,isteenjt@123-reg.co.uk,Female,152.198.254.23
715,Norbie,Josebury,njoseburyju@usgs.gov,Male,134.136.156.65
716,Vince,Brandone,vbrandonejv@usa.gov,Male,76.113.39.104
717,Heddie,Convery,hconveryjw@icq.com,Female,194.254.148.228
718,Hart,Sherwen,hsherwenjx@netlog.com,Male,242.4.4.22
719,Jammie,Skrzynski,jskrzynskijy@fda.gov,Female,50.15.134.248
720,Karoly,Spelwood,kspelwoodjz@home.pl,Male,152.160.93.196
721,Simmonds,Scaice,sscaicek0@twitpic.com,Male,94.218.82.72
722,Chadd,Keely,ckeelyk1@joomla.org,Male,75.205.39.71
723,Yolanda,Kiera,ykierak2@yahoo.com,Female,133.223.166.204
724,Ringo,Latham,rlathamk3@gov.uk,Male,180.142.107.102
725,Galina,McGrowther,gmcgrowtherk4@si.edu,Female,34.125.85.4
726,Ross,Bloor,rbloork5@seattletimes.com,Male,183.96.130.81
727,Alair,Corbet,acorbetk6@yahoo.com,Male,5.169.9.153
728,Inge,Jeenes,ijeenesk7@hexun.com,Female,9.22.77.25
729,Angelita,Zealey,azealeyk8@woothemes.com,Female,72.247.245.238
730,Mariya,Cardoo,mcardook9@squarespace.com,Female,151.191.173.76
731,Yehudit,Gaynor,ygaynorka@indiegogo.com,Male,69.55.2.101
732,Roi,Orriss,rorrisskb@google.com.au,Male,191.65.55.234
733,Krista,Tessier,ktessierkc@archive.org,Female,55.3.224.26
734,Clyde,Dicken,cdickenkd@dailymotion.com,Male,163.94.41.100
735,Pascale,Duckels,pduckelske@abc.net.au,Male,213.244.82.55
736,Glennis,Grass,ggrasskf@goodreads.com,Female,193.57.35.23
737,Iain,Klisch,iklischkg@eventbrite.com,Male,238.49.43.176
738,Berkley,Jurges,bjurgeskh@go.com,Male,29.56.160.221
739,Wilona,Stanex,wstanexki@shop-pro.jp,Female,57.121.215.69
740,Piggy,Dodgshun,pdodgshunkj@ca.gov,Male,239.173.12.188
741,Lewiss,Trotton,ltrottonkk@disqus.com,Male,12.118.58.192
742,Salli,Morris,smorriskl@ow.ly,Female,179.254.245.201
743,Agace,Rings,aringskm@eepurl.com,Female,216.131.2.19
744,Whittaker,Tilt,wtiltkn@wunderground.com,Male,11.4.8.190
745,Dasi,Bradder,dbradderko@parallels.com,Female,91.22.191.234
746,Jessey,Shreeves,jshreeveskp@hc360.com,Male,127.112.103.68
747,Hilda,Harragin,hharraginkq@facebook.com,Female,194.49.237.123
748,Gena,Clowser,gclowserkr@oakley.com,Female,52.93.130.95
749,Keith,Braunes,kbraunesks@163.com,Male,141.92.156.70
750,Merissa,Mulqueeny,mmulqueenykt@liveinternet.ru,Female,115.145.223.107
751,Levy,Cancellario,lcancellarioku@irs.gov,Male,33.215.253.184
752,Wilhelmine,Paskerful,wpaskerfulkv@4shared.com,Female,21.39.26.32
753,Albina,Roderighi,aroderighikw@liveinternet.ru,Female,149.252.39.109
754,Karee,Binge,kbingekx@hc360.com,Female,141.64.211.36
755,Bartlett,Haddington,bhaddingtonky@blinklist.com,Male,127.73.81.251
756,Torrence,Steere,tsteerekz@technorati.com,Male,200.35.67.253
757,Thomasine,Safell,tsafelll0@wix.com,Female,231.248.179.106
758,Bartholomeo,Divisek,bdivisekl1@usa.gov,Male,133.35.236.34
759,Michelle,Mosedale,mmosedalel2@csmonitor.com,Female,107.211.73.25
760,Dorette,Schiersch,dschierschl3@shop-pro.jp,Female,45.3.141.228
761,Carma,Mutton,cmuttonl4@miitbeian.gov.cn,Female,59.20.215.48
762,Reginald,Peniman,rpenimanl5@ihg.com,Male,183.66.248.179
763,Rozanne,Jeffry,rjeffryl6@hostgator.com,Female,137.68.73.58
764,Judon,Deex,jdeexl7@bigcartel.com,Male,207.126.105.11
765,Rodolfo,Whittlesea,rwhittleseal8@live.com,Male,233.10.116.117
766,Jenelle,Oakwell,joakwelll9@samsung.com,Female,53.182.236.236
767,Birgit,Odcroft,bodcroftla@youtube.com,Female,183.125.175.244
768,Bronny,Kinchington,bkinchingtonlb@artisteer.com,Male,249.0.1.175
769,Wolfgang,Perico,wpericolc@nps.gov,Male,197.164.254.21
770,Denice,Teece,dteeceld@de.vu,Female,42.23.15.100
771,Kris,Bottini,kbottinile@amazon.com,Male,66.102.112.241
772,Vidovik,Kildahl,vkildahllf@google.pl,Male,7.157.58.121
773,Gonzalo,Van der Velde,gvanderveldelg@rambler.ru,Male,145.152.31.141
774,Wynnie,Durtnall,wdurtnalllh@lulu.com,Female,143.59.100.248
775,Noll,Ashburner,nashburnerli@columbia.edu,Male,107.65.26.137
776,Celie,Zambonini,czamboninilj@samsung.com,Female,45.220.121.189
777,Gerri,Lincey,glinceylk@cbc.ca,Male,230.80.192.253
778,Josy,Chanders,jchandersll@amazon.co.jp,Female,228.166.184.162
779,Isidore,Cappleman,icapplemanlm@wix.com,Male,3.135.199.218
780,Vachel,Linde,vlindeln@tumblr.com,Male,145.58.12.140
781,Liva,De la Harpe,ldelaharpelo@squarespace.com,Female,178.24.162.100
782,Herschel,Pantlin,hpantlinlp@japanpost.jp,Male,164.171.38.3
783,Perrine,Aspinall,paspinalllq@cdc.gov,Female,117.3.216.24
784,Janina,Peskin,jpeskinlr@adobe.com,Female,247.254.49.180
785,Alexa,McGeachey,amcgeacheyls@admin.ch,Female,57.71.134.140
786,Haleigh,Brizland,hbrizlandlt@techcrunch.com,Female,79.196.206.207
787,Peggy,Amburgy,pamburgylu@globo.com,Female,46.134.117.217
788,Frieda,Townsend,ftownsendlv@youku.com,Female,211.121.10.118
789,Bernie,Orrin,borrinlw@loc.gov,Female,40.230.158.69
790,Leann,Masserel,lmasserellx@diigo.com,Female,178.28.66.78
791,Blithe,Cazin,bcazinly@e-recht24.de,Female,6.201.52.2
792,Olimpia,Jay,ojaylz@omniture.com,Female,228.127.105.217
793,Ham,Ranby,hranbym0@comsenz.com,Male,15.95.131.102
794,Mikkel,Speck,mspeckm1@rakuten.co.jp,Male,191.121.14.12
795,Kurtis,Fortman,kfortmanm2@abc.net.au,Male,156.104.62.129
796,Raimund,Heaford,rheafordm3@infoseek.co.jp,Male,112.183.106.141
797,Evangelina,Crabbe,ecrabbem4@blog.com,Female,49.202.208.237
798,Layney,Cultcheth,lcultchethm5@yale.edu,Female,56.34.207.187
799,Christina,Winsper,cwinsperm6@chicagotribune.com,Female,107.58.50.106
800,Benedikt,Prantl,bprantlm7@themeforest.net,Male,236.176.184.50
801,Katheryn,Freed,kfreedm8@ameblo.jp,Female,240.30.143.130
802,Brynne,Jochen,bjochenm9@hubpages.com,Female,96.203.114.177
803,Jens,Zini,jzinima@google.com.hk,Male,79.225.19.4
804,Gusti,Lie,gliemb@sun.com,Female,233.177.143.136
805,Jaquelyn,Mangenet,jmangenetmc@eventbrite.com,Female,210.62.91.103
806,Larry,Backs,lbacksmd@jiathis.com,Male,246.197.181.109
807,Marlin,Leming,mlemingme@nsw.gov.au,Male,2.30.74.222
808,Carley,Guice,cguicemf@shareasale.com,Female,8.26.58.138
809,Drusilla,Gaspar,dgasparmg@omniture.com,Female,155.210.203.245
810,Joseito,Choudhury,jchoudhurymh@gravatar.com,Male,124.196.91.174
811,Ilse,Naire,inairemi@sphinn.com,Female,197.137.178.228
812,Janela,Challace,jchallacemj@meetup.com,Female,124.208.175.117
813,Valerye,Jaimez,vjaimezmk@netscape.com,Female,23.172.162.206
814,Kinna,Tythacott,ktythacottml@ebay.com,Female,168.252.229.174
815,Christoforo,De Filippo,cdefilippomm@globo.com,Male,181.88.221.2
816,Renee,Burder,rburdermn@telegraph.co.uk,Female,147.240.27.240
817,Zebulon,Fenelow,zfenelowmo@lulu.com,Male,212.217.108.154
818,Kira,Dmitrievski,kdmitrievskimp@istockphoto.com,Female,9.116.110.72
819,Darill,Lonnon,dlonnonmq@delicious.com,Male,210.75.133.11
820,Kiele,Skehan,kskehanmr@altervista.org,Female,255.44.63.3
821,Jodie,Wickmann,jwickmannms@comsenz.com,Male,22.241.181.163
822,Torrance,Dabbes,tdabbesmt@sciencedirect.com,Male,150.212.2.12
823,Robinet,Heggs,rheggsmu@dailymail.co.uk,Female,236.101.192.248
824,Vernor,Phaup,vphaupmv@npr.org,Male,179.230.32.164
825,Launce,O'Geaney,logeaneymw@jigsy.com,Male,139.225.55.131
826,Homerus,Hanny,hhannymx@twitpic.com,Male,243.166.84.48
827,Dane,Cadden,dcaddenmy@gizmodo.com,Male,129.206.72.29
828,Shadow,Consadine,sconsadinemz@seesaa.net,Male,122.177.78.73
829,Chantalle,Klarzynski,cklarzynskin0@netlog.com,Female,78.253.201.57
830,Lincoln,Mepsted,lmepstedn1@census.gov,Male,94.135.213.143
831,Claiborne,Walasik,cwalasikn2@miibeian.gov.cn,Male,120.101.138.22
832,Karon,McMillan,kmcmillann3@washingtonpost.com,Female,233.124.239.9
833,Farr,Grafom,fgrafomn4@google.es,Male,197.7.43.94
834,Nicolai,Morrallee,nmorralleen5@xrea.com,Male,142.216.154.19
835,Rafaelita,Fley,rfleyn6@loc.gov,Female,37.63.39.184
836,Mara,Verni,mvernin7@rambler.ru,Female,39.104.153.73
837,Stacy,Ferris,sferrisn8@cpanel.net,Female,140.163.39.195
838,Aridatha,Lampard,alampardn9@smugmug.com,Female,242.57.184.97
839,Xavier,Binton,xbintonna@mac.com,Male,116.205.211.54
840,Ammamaria,Pegden,apegdennb@go.com,Female,40.246.200.164
841,Octavius,Ingham,oinghamnc@ucsd.edu,Male,169.97.215.107
842,Killie,Linney,klinneynd@washington.edu,Male,48.2.211.53
843,Vittoria,Aphale,vaphalene@com.com,Female,85.141.200.184
844,Tatiana,Venables,tvenablesnf@ovh.net,Female,226.78.245.130
845,Marvin,Fancott,mfancottng@yellowbook.com,Male,109.50.105.174
846,Randall,Rihosek,rrihoseknh@patch.com,Male,216.239.245.222
847,Thomasine,Vyvyan,tvyvyanni@mlb.com,Female,25.156.108.213
848,Hubey,McInnes,hmcinnesnj@goo.ne.jp,Male,19.141.48.250
849,Redford,Stobie,rstobienk@barnesandnoble.com,Male,8.114.1.4
850,Di,Darnbrough,ddarnbroughnl@forbes.com,Female,166.21.227.173
851,Luke,Semble,lsemblenm@amazonaws.com,Male,98.40.103.38
852,Sherrie,Lutty,sluttynn@bbb.org,Female,56.140.174.91
853,Lynde,Garvin,lgarvinno@cnn.com,Female,5.7.12.203
854,Dulcine,Basnett,dbasnettnp@mashable.com,Female,38.134.133.179
855,Cosetta,Carrel,ccarrelnq@rakuten.co.jp,Female,202.144.154.159
856,Finn,Cashford,fcashfordnr@irs.gov,Male,53.154.232.6
857,Toinette,Corradetti,tcorradettins@chron.com,Female,62.55.209.17
858,Tiphani,Jump,tjumpnt@google.fr,Female,217.14.99.147
859,Ingaberg,Stagg,istaggnu@dailymotion.com,Female,123.245.160.40
860,Terri,Cowcha,tcowchanv@google.com,Male,122.148.14.137
861,Emmaline,Sidebotton,esidebottonnw@google.pl,Female,171.250.138.104
862,Juliane,Sarfat,jsarfatnx@goodreads.com,Female,47.212.157.160
863,Hendrika,Elis,helisny@scribd.com,Female,62.194.31.177
864,Verge,Reynoollds,vreynoolldsnz@goodreads.com,Male,30.132.176.171
865,Timothee,Welband,twelbando0@symantec.com,Male,58.131.40.146
866,Blayne,Bonnick,bbonnicko1@rediff.com,Male,7.40.161.112
867,Brianne,Bover,bbovero2@twitter.com,Female,0.252.96.241
868,Hedda,MacGeffen,hmacgeffeno3@umn.edu,Female,152.56.112.233
869,Orran,Yepiskopov,oyepiskopovo4@weibo.com,Male,127.56.152.195
870,Jaye,Medhurst,jmedhursto5@theguardian.com,Male,113.203.116.157
871,Kala,Maine,kmaineo6@friendfeed.com,Female,113.214.32.139
872,Devin,Anan,danano7@digg.com,Female,229.61.65.249
873,Aline,Marchant,amarchanto8@imageshack.us,Female,33.62.190.145
874,Kasper,Hogbourne,khogbourneo9@artisteer.com,Male,161.234.161.175
875,Evangeline,Screech,escreechoa@shareasale.com,Female,194.97.145.238
876,Tracee,Burditt,tburdittob@geocities.com,Female,228.118.208.236
877,Reinaldo,McNeil,rmcneiloc@webnode.com,Male,63.136.74.131
878,Maynard,Benallack,mbenallackod@sakura.ne.jp,Male,140.51.118.192
879,Lorena,Pavolini,lpavolinioe@freewebs.com,Female,216.147.201.171
880,Adrianne,Gillyatt,agillyattof@exblog.jp,Female,200.250.141.244
881,Jennica,Silwood,jsilwoodog@spotify.com,Female,80.113.255.234
882,Homer,Pickless,hpicklessoh@fda.gov,Male,38.250.40.150
883,Belvia,Pidgley,bpidgleyoi@google.ca,Female,162.52.3.48
884,Kermy,Chatelain,kchatelainoj@storify.com,Male,184.180.35.171
885,Elna,Matskiv,ematskivok@ucsd.edu,Female,67.196.82.52
886,Tierney,Rodgman,trodgmanol@apple.com,Female,223.193.148.75
887,Rubi,Chrisp,rchrispom@businessweek.com,Female,107.131.223.180
888,Sybila,Torald,storaldon@go.com,Female,92.53.121.0
889,Karlik,Symonds,ksymondsoo@psu.edu,Male,213.151.194.231
890,Dionysus,Klimkowski,dklimkowskiop@privacy.gov.au,Male,243.27.32.64
891,Stepha,Snasdell,ssnasdelloq@wiley.com,Female,239.153.182.126
892,Davin,Lazell,dlazellor@guardian.co.uk,Male,55.184.184.183
893,Amye,Goves,agovesos@fastcompany.com,Female,147.115.198.54
894,Sergent,Caddick,scaddickot@wikipedia.org,Male,233.247.24.141
895,Yancy,Holcroft,yholcroftou@moonfruit.com,Male,40.237.128.101
896,Martino,Philliskirk,mphilliskirkov@amazonaws.com,Male,79.55.200.134
897,Maxi,Gerok,mgerokow@people.com.cn,Female,172.139.172.95
898,Dane,Mathewes,dmathewesox@ezinearticles.com,Male,239.200.207.153
899,Doy,O'Hannen,dohannenoy@goo.ne.jp,Male,129.197.240.168
900,Salvidor,Roll,srolloz@fc2.com,Male,135.55.46.112
901,Nikolaos,Tambling,ntamblingp0@cbc.ca,Male,241.215.71.172
902,Johna,Schade,jschadep1@technorati.com,Female,155.164.17.87
903,Tore,Simmonett,tsimmonettp2@ucoz.com,Male,77.58.9.105
904,Rickert,Chivers,rchiversp3@yahoo.co.jp,Male,210.139.43.79
905,Stephine,Broxis,sbroxisp4@springer.com,Female,158.73.212.3
906,Koressa,Peckitt,kpeckittp5@ezinearticles.com,Female,238.243.195.180
907,Lew,Treher,ltreherp6@umn.edu,Male,46.66.248.185
908,Zandra,Serrier,zserrierp7@soundcloud.com,Female,136.49.26.197
909,Roselle,Tooby,rtoobyp8@va.gov,Female,56.239.174.173
910,Patty,Stolting,pstoltingp9@booking.com,Female,216.33.135.200
911,Jamison,Cowx,jcowxpa@hatena.ne.jp,Male,27.108.14.154
912,Raf,Struthers,rstrutherspb@geocities.jp,Female,215.18.234.94
913,Lynde,Klemke,lklemkepc@tripod.com,Female,158.160.164.204
914,Frank,Medcraft,fmedcraftpd@cam.ac.uk,Female,107.246.118.61
915,Drucy,Kettleson,dkettlesonpe@youku.com,Female,209.92.23.198
916,Bartlet,Silversmid,bsilversmidpf@state.tx.us,Male,13.248.41.114
917,Corabelle,Doyley,cdoyleypg@wired.com,Female,36.178.19.108
918,Hyatt,Jozsa,hjozsaph@engadget.com,Male,77.55.90.235
919,Broddie,Howford,bhowfordpi@dailymail.co.uk,Male,106.36.75.207
920,Dex,Elwel,delwelpj@shutterfly.com,Male,95.233.74.140
921,Link,Isaaksohn,lisaaksohnpk@mapquest.com,Male,2.161.108.40
922,Geoffry,Brunroth,gbrunrothpl@si.edu,Male,149.194.39.255
923,Codee,Wessell,cwessellpm@spotify.com,Female,8.180.228.135
924,Bobbette,Dannett,bdannettpn@chronoengine.com,Female,60.43.2.112
925,Gillian,Harcarse,gharcarsepo@fastcompany.com,Female,251.134.186.33
926,Odele,Orrobin,oorrobinpp@washington.edu,Female,89.20.205.175
927,Mandy,Balch,mbalchpq@digg.com,Female,138.0.51.215
928,Delcina,Nelhams,dnelhamspr@wsj.com,Female,252.127.82.160
929,Fergus,Rodolphe,frodolpheps@webeden.co.uk,Male,133.12.136.168
930,Karie,Schachter,kschachterpt@cargocollective.com,Female,230.77.4.144
931,Vasily,Dauby,vdaubypu@si.edu,Male,229.151.225.154
932,Nappie,Gaukrodge,ngaukrodgepv@baidu.com,Male,93.114.32.45
933,Alvina,Tash,atashpw@netvibes.com,Female,19.46.42.25
934,Archibald,Thurlby,athurlbypx@patch.com,Male,134.138.128.101
935,Tull,Kubis,tkubispy@washingtonpost.com,Male,161.201.219.182
936,Brewster,Abbot,babbotpz@reuters.com,Male,132.107.11.90
937,Erich,Shortcliffe,eshortcliffeq0@vistaprint.com,Male,198.74.121.151
938,Georgeanne,Crapper,gcrapperq1@soundcloud.com,Female,67.215.201.215
939,Frederique,Stiven,fstivenq2@aboutads.info,Female,181.101.43.106
940,Agnola,Cafferty,acaffertyq3@archive.org,Female,73.86.230.200
941,Ginger,Gouldthorpe,ggouldthorpeq4@infoseek.co.jp,Female,80.247.3.20
942,Cyrus,Craze,ccrazeq5@google.it,Male,113.132.188.21
943,Berny,Quinnette,bquinnetteq6@exblog.jp,Male,60.30.44.25
944,Elmore,Naire,enaireq7@loc.gov,Male,96.120.151.187
945,Velma,Holwell,vholwellq8@google.com.au,Female,171.188.124.16
946,Saunders,Trott,strottq9@ucsd.edu,Male,36.92.79.174
947,Hugues,Balston,hbalstonqa@studiopress.com,Male,207.194.193.158
948,Kendrick,Jovanovic,kjovanovicqb@marriott.com,Male,252.193.63.94
949,Alfredo,Grayshon,agrayshonqc@mozilla.com,Male,64.230.223.62
950,Tallie,D'Ugo,tdugoqd@nhs.uk,Female,231.150.42.219
951,Barry,Nutbeam,bnutbeamqe@t-online.de,Male,85.99.46.203
952,Keeley,Bothams,kbothamsqf@java.com,Female,252.212.93.150
953,Papageno,MacGillivrie,pmacgillivrieqg@pbs.org,Male,125.205.111.111
954,Cicily,Coldwell,ccoldwellqh@hubpages.com,Female,130.205.230.80
955,Oneida,Yglesia,oyglesiaqi@webnode.com,Female,127.195.35.52
956,Albert,Cheese,acheeseqj@uiuc.edu,Male,250.114.137.61
957,Celestyn,Barock,cbarockqk@nyu.edu,Female,244.112.217.131
958,Nolan,Foulser,nfoulserql@opensource.org,Male,46.188.180.59
959,Zared,Othick,zothickqm@cocolog-nifty.com,Male,0.212.166.148
960,Caspar,Phateplace,cphateplaceqn@sciencedirect.com,Male,4.148.187.12
961,Jaclin,Bagguley,jbagguleyqo@naver.com,Female,186.14.133.191
962,Wittie,Marcus,wmarcusqp@com.com,Male,229.184.133.118
963,Linnet,Rekes,lrekesqq@geocities.com,Female,89.225.244.147
964,Conny,Scougal,cscougalqr@virginia.edu,Female,164.236.201.211
965,Thaxter,Yablsley,tyablsleyqs@salon.com,Male,134.174.111.187
966,Olivier,Dumphry,odumphryqt@canalblog.com,Male,161.225.124.88
967,Sydney,Heyworth,sheyworthqu@economist.com,Female,147.234.233.203
968,Seymour,Huikerby,shuikerbyqv@dagondesign.com,Male,106.252.127.187
969,Kerby,Carlick,kcarlickqw@vistaprint.com,Male,76.48.159.144
970,Munmro,Breckin,mbreckinqx@usda.gov,Male,64.118.230.195
971,Iseabal,Tenbrug,itenbrugqy@deliciousdays.com,Female,212.140.115.45
972,Vina,Glaum,vglaumqz@home.pl,Female,165.81.16.202
973,Marv,Spatig,mspatigr0@icq.com,Male,9.109.219.137
974,Tab,Cashman,tcashmanr1@techcrunch.com,Male,190.147.17.162
975,Garry,Halesworth,ghalesworthr2@irs.gov,Male,206.112.131.11
976,Wallie,Marsters,wmarstersr3@blog.com,Female,154.244.187.221
977,Kellia,Greenham,kgreenhamr4@bandcamp.com,Female,70.131.255.183
978,Gaynor,Bortolotti,gbortolottir5@redcross.org,Female,243.232.173.158
979,Dante,Wickersley,dwickersleyr6@webs.com,Male,76.200.198.105
980,Guss,McIlwain,gmcilwainr7@patch.com,Male,7.224.148.185
981,Kile,Barringer,kbarringerr8@umich.edu,Male,114.234.84.89
982,Candi,Walentynowicz,cwalentynowiczr9@phoca.cz,Female,137.10.2.250
983,Demetra,McPeeters,dmcpeetersra@icio.us,Female,198.38.129.38
984,Claudette,Kundert,ckundertrb@mac.com,Female,149.220.5.11
985,Iggy,Winckworth,iwinckworthrc@bloglines.com,Male,227.175.221.113
986,Jayme,Thirwell,jthirwellrd@angelfire.com,Male,219.133.45.7
987,Shirleen,Faircliffe,sfaircliffere@feedburner.com,Female,11.198.116.152
988,Fanni,Presdee,fpresdeerf@dagondesign.com,Female,57.130.213.243
989,Aretha,Cockayme,acockaymerg@1und1.de,Female,170.245.157.242
990,Ursula,Mate,umaterh@so-net.ne.jp,Female,131.201.150.182
991,Conny,Croome,ccroomeri@123-reg.co.uk,Male,8.192.148.244
992,Camella,Noe,cnoerj@icq.com,Female,251.137.171.149
993,Yance,Glynn,yglynnrk@tinypic.com,Male,130.36.228.177
994,Oberon,Goulbourn,ogoulbournrl@hostgator.com,Male,83.206.174.190
995,Dick,Hughman,dhughmanrm@wp.com,Male,152.117.186.239
996,Rafaela,Archdeacon,rarchdeaconrn@berkeley.edu,Female,21.103.31.250
997,Estell,Raysdale,eraysdalero@statcounter.com,Female,184.202.105.5
998,Sigmund,Ocheltree,socheltreerp@businesswire.com,Male,131.141.218.175
999,Noach,Braizier,nbraizierrq@admin.ch,Male,106.161.74.53
1000,Britt,Brogiotti,bbrogiottirr@mapy.cz,Female,156.50.216.214
